…
So why I did this? Basically I would like to know how many transit lines each city have, which means that the variable I added must contain the same number for each city, the same goes for average line length for each country, the variable should contain the same value for each country. This is the tidy way to improve your data and get more interesting insights form it, using the tidyverse makes it easier especially later with the visualization with ggplot2 you will see how intuitive and flawless it is to visualize all of this. Also, note that I used the nest_by function, probably this is not the best way to use it but at the time of writing this it was good enough. I used to be a little skeptical with nested data but it turned out to be very useful in many cases. I mean, you can do this in other languages, but boy the tidyverse makes the entire process super smooth. I encourage you to take it into consideration.

You can see the usefulness of what I did here, for example let’s see how the data looks for China:

transit_cost %>%
  filter(country == "China") %>%
  select(country, city, number_lines, mean_length, length) 

## # A tibble: 169 x 5
##    country city    number_lines mean_length length
##    <chr>   <chr>          <int>       <dbl>  <dbl>
##  1 China   Beijing           21        24.1  28.2 
##  2 China   Beijing           21        24.1  40.8 
##  3 China   Beijing           21        24.1   8.78
##  4 China   Beijing           21        24.1   4   
##  5 China   Beijing           21        24.1  37.4 
##  6 China   Beijing           21        24.1  29.2 
##  7 China   Beijing           21        24.1   3.4 
##  8 China   Beijing           21        24.1  22.4 
##  9 China   Beijing           21        24.1  49.7 
## 10 China   Beijing           21        24.1  49.8 
## # … with 159 more rows
…
