…
Data Summary

Let’s first import data (and clean it’s column names)

freedom <- readr::read_csv('https://raw.githubusercontent.com/rfordatascience/tidytuesday/master/data/2022/2022-02-22/freedom.csv') %>% 
  janitor::clean_names()

freedom

## # A tibble: 4,979 × 8
##    country      year    cl    pr status region_code region_name is_ldc
##    <chr>       <dbl> <dbl> <dbl> <chr>        <dbl> <chr>        <dbl>
##  1 Afghanistan  1995     7     7 NF             142 Asia             1
##  2 Afghanistan  1996     7     7 NF             142 Asia             1
##  3 Afghanistan  1997     7     7 NF             142 Asia             1
##  4 Afghanistan  1998     7     7 NF             142 Asia             1
##  5 Afghanistan  1999     7     7 NF             142 Asia             1
##  6 Afghanistan  2000     7     7 NF             142 Asia             1
##  7 Afghanistan  2001     7     7 NF             142 Asia             1
##  8 Afghanistan  2002     6     6 NF             142 Asia             1
##  9 Afghanistan  2003     6     6 NF             142 Asia             1
## 10 Afghanistan  2004     6     5 NF             142 Asia             1
## # … with 4,969 more rows
…
