…
So there you go, 69% of the wind turbines in canada are installed in Ontario and Quebec(82% if we add Alberta). This is an interesting fact, but I think we should look up when did all this started, and how is the turbines service period is distributed.

wind_turbine %>%
  count(commissioning_date, sort = T)

## # A tibble: 35 x 2
##    commissioning_date     n
##    <chr>              <int>
##  1 2014                 873
##  2 2015                 635
##  3 2013                 621
##  4 2011                 590
##  5 2009                 485
##  6 2006                 455
##  7 2012                 404
##  8 2010                 334
##  9 2016                 266
## 10 2014/2015            207
## # … with 25 more rows
…
